^F:\DEN GAMES\SPACE INVADER\SPACE INVADER PROJECT\ALIEN.CPP|F:\DEN GAMES\SPACE INVADER\SPACE INVADER PROJECT\APPLICATION.CPP|F:\DEN GAMES\SPACE INVADER\SPACE INVADER PROJECT\BULLET.CPP|F:\DEN GAMES\SPACE INVADER\SPACE INVADER PROJECT\COMMAND.CPP|F:\DEN GAMES\SPACE INVADER\SPACE INVADER PROJECT\DRAWABLE.CPP|F:\DEN GAMES\SPACE INVADER\SPACE INVADER PROJECT\ENTITY.CPP|F:\DEN GAMES\SPACE INVADER\SPACE INVADER PROJECT\GAMESTATE.CPP|F:\DEN GAMES\SPACE INVADER\SPACE INVADER PROJECT\MENUITEM.CPP|F:\DEN GAMES\SPACE INVADER\SPACE INVADER PROJECT\MENUSTATE.CPP|F:\DEN GAMES\SPACE INVADER\SPACE INVADER PROJECT\PAUSESTATE.CPP|F:\DEN GAMES\SPACE INVADER\SPACE INVADER PROJECT\PLAYER.CPP|F:\DEN GAMES\SPACE INVADER\SPACE INVADER PROJECT\POWERUP.CPP|F:\DEN GAMES\SPACE INVADER\SPACE INVADER PROJECT\SCENENODE.CPP|F:\DEN GAMES\SPACE INVADER\SPACE INVADER PROJECT\SOURCE.CPP|F:\DEN GAMES\SPACE INVADER\SPACE INVADER PROJECT\STATE.CPP|F:\DEN GAMES\SPACE INVADER\SPACE INVADER PROJECT\STATESTACK.CPP|F:\DEN GAMES\SPACE INVADER\SPACE INVADER PROJECT\TEXTUREHOLDER.CPP|F:\DEN GAMES\SPACE INVADER\SPACE INVADER PROJECT\WEAPON.CPP|F:\DEN GAMES\SPACE INVADER\SPACE INVADER PROJECT\WORLD.CPP
F:\DEN GAMES\SPACE INVADER\SPACE INVADER PROJECT\DEBUG\VC120.PDB
F:\DEN GAMES\SPACE INVADER\SPACE INVADER PROJECT\DEBUG\VC120.IDB
F:\DEN GAMES\SPACE INVADER\SPACE INVADER PROJECT\DEBUG\ALIEN.OBJ
F:\DEN GAMES\SPACE INVADER\SPACE INVADER PROJECT\DEBUG\APPLICATION.OBJ
F:\DEN GAMES\SPACE INVADER\SPACE INVADER PROJECT\DEBUG\BULLET.OBJ
F:\DEN GAMES\SPACE INVADER\SPACE INVADER PROJECT\DEBUG\COMMAND.OBJ
F:\DEN GAMES\SPACE INVADER\SPACE INVADER PROJECT\DEBUG\DRAWABLE.OBJ
F:\DEN GAMES\SPACE INVADER\SPACE INVADER PROJECT\DEBUG\ENTITY.OBJ
F:\DEN GAMES\SPACE INVADER\SPACE INVADER PROJECT\DEBUG\GAMESTATE.OBJ
F:\DEN GAMES\SPACE INVADER\SPACE INVADER PROJECT\DEBUG\MENUITEM.OBJ
F:\DEN GAMES\SPACE INVADER\SPACE INVADER PROJECT\DEBUG\MENUSTATE.OBJ
F:\DEN GAMES\SPACE INVADER\SPACE INVADER PROJECT\DEBUG\PAUSESTATE.OBJ
F:\DEN GAMES\SPACE INVADER\SPACE INVADER PROJECT\DEBUG\PLAYER.OBJ
F:\DEN GAMES\SPACE INVADER\SPACE INVADER PROJECT\DEBUG\POWERUP.OBJ
F:\DEN GAMES\SPACE INVADER\SPACE INVADER PROJECT\DEBUG\SCENENODE.OBJ
F:\DEN GAMES\SPACE INVADER\SPACE INVADER PROJECT\DEBUG\SOURCE.OBJ
F:\DEN GAMES\SPACE INVADER\SPACE INVADER PROJECT\DEBUG\STATE.OBJ
F:\DEN GAMES\SPACE INVADER\SPACE INVADER PROJECT\DEBUG\STATESTACK.OBJ
F:\DEN GAMES\SPACE INVADER\SPACE INVADER PROJECT\DEBUG\TEXTUREHOLDER.OBJ
F:\DEN GAMES\SPACE INVADER\SPACE INVADER PROJECT\DEBUG\WEAPON.OBJ
F:\DEN GAMES\SPACE INVADER\SPACE INVADER PROJECT\DEBUG\WORLD.OBJ
^F:\DEN GAMES\SPACE INVADER\SPACE INVADER PROJECT\ALIEN.CPP
F:\DEN GAMES\SPACE INVADER\SPACE INVADER PROJECT\DEBUG\VC120.PDB
^F:\DEN GAMES\SPACE INVADER\SPACE INVADER PROJECT\APPLICATION.CPP
F:\DEN GAMES\SPACE INVADER\SPACE INVADER PROJECT\DEBUG\VC120.PDB
F:\DEN GAMES\SPACE INVADER\SPACE INVADER PROJECT\DEBUG\VC120.IDB
F:\DEN GAMES\SPACE INVADER\SPACE INVADER PROJECT\DEBUG\APPLICATION.OBJ
^F:\DEN GAMES\SPACE INVADER\SPACE INVADER PROJECT\BULLET.CPP
F:\DEN GAMES\SPACE INVADER\SPACE INVADER PROJECT\DEBUG\VC120.PDB
^F:\DEN GAMES\SPACE INVADER\SPACE INVADER PROJECT\COMMAND.CPP
F:\DEN GAMES\SPACE INVADER\SPACE INVADER PROJECT\DEBUG\VC120.PDB
^F:\DEN GAMES\SPACE INVADER\SPACE INVADER PROJECT\DRAWABLE.CPP
F:\DEN GAMES\SPACE INVADER\SPACE INVADER PROJECT\DEBUG\VC120.PDB
^F:\DEN GAMES\SPACE INVADER\SPACE INVADER PROJECT\ENTITY.CPP
F:\DEN GAMES\SPACE INVADER\SPACE INVADER PROJECT\DEBUG\VC120.PDB
^F:\DEN GAMES\SPACE INVADER\SPACE INVADER PROJECT\GAMESTATE.CPP
F:\DEN GAMES\SPACE INVADER\SPACE INVADER PROJECT\DEBUG\VC120.PDB
^F:\DEN GAMES\SPACE INVADER\SPACE INVADER PROJECT\MENUITEM.CPP
F:\DEN GAMES\SPACE INVADER\SPACE INVADER PROJECT\DEBUG\VC120.PDB
F:\DEN GAMES\SPACE INVADER\SPACE INVADER PROJECT\DEBUG\VC120.IDB
F:\DEN GAMES\SPACE INVADER\SPACE INVADER PROJECT\DEBUG\MENUITEM.OBJ
^F:\DEN GAMES\SPACE INVADER\SPACE INVADER PROJECT\MENUSTATE.CPP
F:\DEN GAMES\SPACE INVADER\SPACE INVADER PROJECT\DEBUG\VC120.PDB
F:\DEN GAMES\SPACE INVADER\SPACE INVADER PROJECT\DEBUG\VC120.IDB
F:\DEN GAMES\SPACE INVADER\SPACE INVADER PROJECT\DEBUG\MENUSTATE.OBJ
^F:\DEN GAMES\SPACE INVADER\SPACE INVADER PROJECT\PAUSESTATE.CPP
F:\DEN GAMES\SPACE INVADER\SPACE INVADER PROJECT\DEBUG\VC120.PDB
^F:\DEN GAMES\SPACE INVADER\SPACE INVADER PROJECT\PLAYER.CPP
F:\DEN GAMES\SPACE INVADER\SPACE INVADER PROJECT\DEBUG\VC120.PDB
^F:\DEN GAMES\SPACE INVADER\SPACE INVADER PROJECT\POWERUP.CPP
F:\DEN GAMES\SPACE INVADER\SPACE INVADER PROJECT\DEBUG\VC120.PDB
F:\DEN GAMES\SPACE INVADER\SPACE INVADER PROJECT\DEBUG\VC120.IDB
F:\DEN GAMES\SPACE INVADER\SPACE INVADER PROJECT\DEBUG\POWERUP.OBJ
^F:\DEN GAMES\SPACE INVADER\SPACE INVADER PROJECT\SCENENODE.CPP
F:\DEN GAMES\SPACE INVADER\SPACE INVADER PROJECT\DEBUG\VC120.PDB
^F:\DEN GAMES\SPACE INVADER\SPACE INVADER PROJECT\SOURCE.CPP
F:\DEN GAMES\SPACE INVADER\SPACE INVADER PROJECT\DEBUG\VC120.PDB
^F:\DEN GAMES\SPACE INVADER\SPACE INVADER PROJECT\STATE.CPP
F:\DEN GAMES\SPACE INVADER\SPACE INVADER PROJECT\DEBUG\VC120.PDB
^F:\DEN GAMES\SPACE INVADER\SPACE INVADER PROJECT\STATESTACK.CPP
F:\DEN GAMES\SPACE INVADER\SPACE INVADER PROJECT\DEBUG\VC120.PDB
^F:\DEN GAMES\SPACE INVADER\SPACE INVADER PROJECT\TEXTUREHOLDER.CPP
F:\DEN GAMES\SPACE INVADER\SPACE INVADER PROJECT\DEBUG\VC120.PDB
^F:\DEN GAMES\SPACE INVADER\SPACE INVADER PROJECT\WEAPON.CPP
F:\DEN GAMES\SPACE INVADER\SPACE INVADER PROJECT\DEBUG\VC120.PDB
^F:\DEN GAMES\SPACE INVADER\SPACE INVADER PROJECT\WORLD.CPP
F:\DEN GAMES\SPACE INVADER\SPACE INVADER PROJECT\DEBUG\VC120.PDB
^F:\DEN GAMES\SPACE INVADER\SPACE INVADER PROJECT\ALIEN.CPP|F:\DEN GAMES\SPACE INVADER\SPACE INVADER PROJECT\APPLICATION.CPP|F:\DEN GAMES\SPACE INVADER\SPACE INVADER PROJECT\BULLET.CPP|F:\DEN GAMES\SPACE INVADER\SPACE INVADER PROJECT\DRAWABLE.CPP|F:\DEN GAMES\SPACE INVADER\SPACE INVADER PROJECT\ENTITY.CPP|F:\DEN GAMES\SPACE INVADER\SPACE INVADER PROJECT\GAMESTATE.CPP|F:\DEN GAMES\SPACE INVADER\SPACE INVADER PROJECT\PLAYER.CPP|F:\DEN GAMES\SPACE INVADER\SPACE INVADER PROJECT\POWERUP.CPP|F:\DEN GAMES\SPACE INVADER\SPACE INVADER PROJECT\SCENENODE.CPP|F:\DEN GAMES\SPACE INVADER\SPACE INVADER PROJECT\SOURCE.CPP|F:\DEN GAMES\SPACE INVADER\SPACE INVADER PROJECT\STATE.CPP|F:\DEN GAMES\SPACE INVADER\SPACE INVADER PROJECT\STATESTACK.CPP|F:\DEN GAMES\SPACE INVADER\SPACE INVADER PROJECT\TEXTUREHOLDER.CPP|F:\DEN GAMES\SPACE INVADER\SPACE INVADER PROJECT\WEAPON.CPP|F:\DEN GAMES\SPACE INVADER\SPACE INVADER PROJECT\WORLD.CPP
F:\DEN GAMES\SPACE INVADER\SPACE INVADER PROJECT\DEBUG\VC120.PDB
F:\DEN GAMES\SPACE INVADER\SPACE INVADER PROJECT\DEBUG\VC120.IDB
F:\DEN GAMES\SPACE INVADER\SPACE INVADER PROJECT\DEBUG\APPLICATION.OBJ
F:\DEN GAMES\SPACE INVADER\SPACE INVADER PROJECT\DEBUG\ALIEN.OBJ
F:\DEN GAMES\SPACE INVADER\SPACE INVADER PROJECT\DEBUG\BULLET.OBJ
F:\DEN GAMES\SPACE INVADER\SPACE INVADER PROJECT\DEBUG\DRAWABLE.OBJ
F:\DEN GAMES\SPACE INVADER\SPACE INVADER PROJECT\DEBUG\ENTITY.OBJ
F:\DEN GAMES\SPACE INVADER\SPACE INVADER PROJECT\DEBUG\GAMESTATE.OBJ
F:\DEN GAMES\SPACE INVADER\SPACE INVADER PROJECT\DEBUG\PLAYER.OBJ
F:\DEN GAMES\SPACE INVADER\SPACE INVADER PROJECT\DEBUG\POWERUP.OBJ
F:\DEN GAMES\SPACE INVADER\SPACE INVADER PROJECT\DEBUG\SCENENODE.OBJ
F:\DEN GAMES\SPACE INVADER\SPACE INVADER PROJECT\DEBUG\SOURCE.OBJ
F:\DEN GAMES\SPACE INVADER\SPACE INVADER PROJECT\DEBUG\STATE.OBJ
F:\DEN GAMES\SPACE INVADER\SPACE INVADER PROJECT\DEBUG\STATESTACK.OBJ
F:\DEN GAMES\SPACE INVADER\SPACE INVADER PROJECT\DEBUG\TEXTUREHOLDER.OBJ
F:\DEN GAMES\SPACE INVADER\SPACE INVADER PROJECT\DEBUG\WEAPON.OBJ
F:\DEN GAMES\SPACE INVADER\SPACE INVADER PROJECT\DEBUG\WORLD.OBJ
^F:\DEN GAMES\SPACE INVADER\SPACE INVADER PROJECT\ALIEN.CPP|F:\DEN GAMES\SPACE INVADER\SPACE INVADER PROJECT\APPLICATION.CPP|F:\DEN GAMES\SPACE INVADER\SPACE INVADER PROJECT\BULLET.CPP|F:\DEN GAMES\SPACE INVADER\SPACE INVADER PROJECT\DRAWABLE.CPP|F:\DEN GAMES\SPACE INVADER\SPACE INVADER PROJECT\ENTITY.CPP|F:\DEN GAMES\SPACE INVADER\SPACE INVADER PROJECT\GAMESTATE.CPP|F:\DEN GAMES\SPACE INVADER\SPACE INVADER PROJECT\PLAYER.CPP|F:\DEN GAMES\SPACE INVADER\SPACE INVADER PROJECT\POWERUP.CPP|F:\DEN GAMES\SPACE INVADER\SPACE INVADER PROJECT\SCENENODE.CPP|F:\DEN GAMES\SPACE INVADER\SPACE INVADER PROJECT\SOURCE.CPP|F:\DEN GAMES\SPACE INVADER\SPACE INVADER PROJECT\TEXTUREHOLDER.CPP|F:\DEN GAMES\SPACE INVADER\SPACE INVADER PROJECT\WEAPON.CPP|F:\DEN GAMES\SPACE INVADER\SPACE INVADER PROJECT\WORLD.CPP
F:\DEN GAMES\SPACE INVADER\SPACE INVADER PROJECT\DEBUG\VC120.PDB
F:\DEN GAMES\SPACE INVADER\SPACE INVADER PROJECT\DEBUG\VC120.IDB
F:\DEN GAMES\SPACE INVADER\SPACE INVADER PROJECT\DEBUG\APPLICATION.OBJ
F:\DEN GAMES\SPACE INVADER\SPACE INVADER PROJECT\DEBUG\ALIEN.OBJ
F:\DEN GAMES\SPACE INVADER\SPACE INVADER PROJECT\DEBUG\BULLET.OBJ
F:\DEN GAMES\SPACE INVADER\SPACE INVADER PROJECT\DEBUG\DRAWABLE.OBJ
F:\DEN GAMES\SPACE INVADER\SPACE INVADER PROJECT\DEBUG\ENTITY.OBJ
F:\DEN GAMES\SPACE INVADER\SPACE INVADER PROJECT\DEBUG\GAMESTATE.OBJ
F:\DEN GAMES\SPACE INVADER\SPACE INVADER PROJECT\DEBUG\PLAYER.OBJ
F:\DEN GAMES\SPACE INVADER\SPACE INVADER PROJECT\DEBUG\POWERUP.OBJ
F:\DEN GAMES\SPACE INVADER\SPACE INVADER PROJECT\DEBUG\SCENENODE.OBJ
F:\DEN GAMES\SPACE INVADER\SPACE INVADER PROJECT\DEBUG\SOURCE.OBJ
F:\DEN GAMES\SPACE INVADER\SPACE INVADER PROJECT\DEBUG\TEXTUREHOLDER.OBJ
F:\DEN GAMES\SPACE INVADER\SPACE INVADER PROJECT\DEBUG\WEAPON.OBJ
F:\DEN GAMES\SPACE INVADER\SPACE INVADER PROJECT\DEBUG\WORLD.OBJ
^F:\DEN GAMES\SPACE INVADER\SPACE INVADER PROJECT\APPLICATION.CPP|F:\DEN GAMES\SPACE INVADER\SPACE INVADER PROJECT\SOURCE.CPP
F:\DEN GAMES\SPACE INVADER\SPACE INVADER PROJECT\DEBUG\VC120.PDB
F:\DEN GAMES\SPACE INVADER\SPACE INVADER PROJECT\DEBUG\VC120.IDB
F:\DEN GAMES\SPACE INVADER\SPACE INVADER PROJECT\DEBUG\SOURCE.OBJ
^F:\DEN GAMES\SPACE INVADER\SPACE INVADER PROJECT\APPLICATION.CPP|F:\DEN GAMES\SPACE INVADER\SPACE INVADER PROJECT\MENUSTATE.CPP|F:\DEN GAMES\SPACE INVADER\SPACE INVADER PROJECT\SOURCE.CPP
F:\DEN GAMES\SPACE INVADER\SPACE INVADER PROJECT\DEBUG\VC120.PDB
F:\DEN GAMES\SPACE INVADER\SPACE INVADER PROJECT\DEBUG\VC120.IDB
F:\DEN GAMES\SPACE INVADER\SPACE INVADER PROJECT\DEBUG\APPLICATION.OBJ
F:\DEN GAMES\SPACE INVADER\SPACE INVADER PROJECT\DEBUG\MENUSTATE.OBJ
F:\DEN GAMES\SPACE INVADER\SPACE INVADER PROJECT\DEBUG\SOURCE.OBJ
^F:\DEN GAMES\SPACE INVADER\SPACE INVADER PROJECT\ALIEN.CPP|F:\DEN GAMES\SPACE INVADER\SPACE INVADER PROJECT\MENUSTATE.CPP|F:\DEN GAMES\SPACE INVADER\SPACE INVADER PROJECT\POWERUP.CPP
F:\DEN GAMES\SPACE INVADER\SPACE INVADER PROJECT\DEBUG\VC120.PDB
F:\DEN GAMES\SPACE INVADER\SPACE INVADER PROJECT\DEBUG\VC120.IDB
F:\DEN GAMES\SPACE INVADER\SPACE INVADER PROJECT\DEBUG\ALIEN.OBJ
F:\DEN GAMES\SPACE INVADER\SPACE INVADER PROJECT\DEBUG\MENUSTATE.OBJ
F:\DEN GAMES\SPACE INVADER\SPACE INVADER PROJECT\DEBUG\POWERUP.OBJ
